  ____       ____        U  ___ u   ____       _   _     ____    _____
U|  _"\ u U |  _"\ u      \/"_ \/  |  _"\   U |"|u| | U /"___|  |_ " _|
\| |_) |/  \| |_) |/      | | | | /| | | |   \| |\| | \| | u      | |
 |  __/     |  _ <    .-,_| |_| | U| |_| |\   | |_| |  | |/__    /| |\
 |_|        |_| \_\    \_)-\___/   |____/ u  <<\___/    \____|  u |_|U
 ||>>_      //   \\_        \\      |||_    (__) )(    _// \\   _// \\_
(__)__)    (__)  (__)      (__)    (__)_)       (__)  (__)(__) (__) (__)